{
    "app-id" : "de.haeckerfelix.SidebarWidget",
    "runtime" : "org.gnome.Platform",
    "runtime-version" : "3.36",
    "sdk" : "org.gnome.Sdk",
    "command" : "sidebarwidget",
    "finish-args" : [
        "--share=network",
        "--share=ipc",
        "--socket=fallback-x11",
        "--socket=wayland",
        "--filesystem=xdg-run/dconf",
        "--filesystem=~/.config/dconf:ro",
        "--talk-name=ca.desrt.dconf",
        "--env=DCONF_USER_CONFIG_DIR=.config/dconf"
    ],
    "cleanup" : [
        "/include",
        "/lib/pkgconfig",
        "/man",
        "/share/doc",
        "/share/gtk-doc",
        "/share/man",
        "/share/pkgconfig",
        "/share/vala",
        "*.la",
        "*.a"
    ],
    "modules" : [
        {
            "name" : "libhandy",
            "buildsystem" : "meson",
            "sources" : [
                {
                    "type" : "dir",
                    "path" : "/home/haecker-felix/Dokumente/Projekte/libhandy"
                }
            ]
        },
        {
            "name" : "sidebarwidget",
            "builddir" : true,
            "buildsystem" : "meson",
            "sources" : [
                {
                    "type" : "git",
                    "url" : "file:///home/haecker-felix/Dokumente/Projekte/SidebarWidget"
                }
            ]
        }
    ],
    "build-options" : {
        "env" : {
        }
    }
}
